E-Commerce A/B Test
…
set.seed(1234)
group_order <- c("Control", "Treatment")

null_hypothesis_new_grouped <- ab_merged_new_groups %>% 
  specify(conversion_factor ~ new_groups, success = "Yes") %>% 
  hypothesise(null = "independence") %>%
  generate(reps = 500, type = "permute") %>%
  calculate(stat = "diff in props", order = group_order)

null_hypothesis_new_grouped

Response: conversion_factor (factor)
Explanatory: new_groups (factor)
Null Hypothesis: independence
# A tibble: 500 × 2
   replicate      stat
       <int>     <dbl>
 1         1 -0.00126 
 2         2  0.000492
 3         3 -0.000692
 4         4 -0.00123 
 5         5 -0.00190 
 6         6  0.00187 
 7         7  0.00243 
 8         8  0.00101 
 9         9 -0.000252
10        10  0.00115 
# ℹ 490 more rows
…
